# Br @(rn-h/2), Br @(rn), Br @(rn+h/2)
0.005109,0.007879,0.005586
0.005112,0.007879,0.005104
0.005115,0.007879,0.005102
0.005117,0.007879,0.005099
0.005119,0.007879,0.005096
0.004931,0.007879,0.004890
0.004933,0.007879,0.004888
0.004935,0.007879,0.004885
0.004938,0.007879,0.004883
0.004930,0.007332,0.004868
0.004933,0.007332,0.004866
0.004935,0.007332,0.004864
0.004937,0.007332,0.004861
0.004764,0.007332,0.004776
0.004766,0.007332,0.004774
0.004768,0.007333,0.004772
0.004770,0.007333,0.004770
0.004692,0.007333,0.004595
0.004694,0.007333,0.004593
0.004696,0.007333,0.004591
0.004698,0.007333,0.004589
0.004700,0.006647,0.004587
0.004599,0.006647,0.004547
0.004601,0.006647,0.004545
0.004602,0.006647,0.004543
0.004604,0.006647,0.004541
0.004493,0.006647,0.004368
0.004495,0.006647,0.004367
0.004496,0.006647,0.004365
0.004498,0.006647,0.004363
0.004359,0.006647,0.004297
0.004361,0.006647,0.004296
0.004363,0.006647,0.004294
0.004364,0.006022,0.004292
0.004304,0.006023,0.004224
0.004305,0.006023,0.004222
0.004307,0.006023,0.004221
0.004308,0.006023,0.004219
0.004164,0.006023,0.004078
0.004166,0.006023,0.004077
0.004167,0.006023,0.004075
0.004169,0.006023,0.004073
0.004170,0.005847,0.004072
0.004098,0.005847,0.004008
0.004100,0.005847,0.004007
0.004101,0.005847,0.004005
0.004103,0.005847,0.004004
0.004014,0.005847,0.003911
0.004016,0.005157,0.003910
0.004017,0.005157,0.003908
0.004018,0.005157,0.003907
0.003920,0.005157,0.003782
0.003922,0.005157,0.003781
0.003923,0.005157,0.003779
0.003924,0.005157,0.003778
0.003803,0.005157,0.003722
0.003805,0.005157,0.003721
0.003806,0.005157,0.003719
0.003807,0.005157,0.003718
0.003809,0.005157,0.003717
0.003741,0.005157,0.003606
0.003742,0.005157,0.003604
0.003744,0.005334,0.003603
0.003745,0.004531,0.003602
0.003675,0.004638,0.003525
0.003676,0.004638,0.003524
0.003677,0.004706,0.003522
0.003678,0.004706,0.003521
0.003551,0.004706,0.003443
0.003552,0.004706,0.003442
0.003554,0.004706,0.003441
0.003555,0.004706,0.003440
0.003478,0.004707,0.003345
0.003479,0.004707,0.003344
0.003480,0.004707,0.003342
0.003481,0.004707,0.003341
0.003415,0.004278,0.003298
0.003416,0.004278,0.003297
0.003417,0.004344,0.003296
0.003418,0.004344,0.003295
0.003419,0.004344,0.003294
0.003316,0.004344,0.003182
0.003317,0.004344,0.003181
0.003318,0.004343,0.003180
0.003319,0.004343,0.003179
0.003247,0.004343,0.003114
0.003248,0.003877,0.003113
0.003249,0.003877,0.003112
0.003250,0.003877,0.003111
0.003149,0.003877,0.003050
0.003150,0.003877,0.003049
0.003151,0.003877,0.003048
0.003152,0.003877,0.003047
0.003089,0.004073,0.002948
0.003090,0.004074,0.002947
0.003091,0.003690,0.002946
0.003091,0.003729,0.002945
0.003092,0.003729,0.002944
0.002992,0.003730,0.002884
0.002993,0.003730,0.002883
0.002994,0.003730,0.002882
0.002995,0.003730,0.002881
0.002927,0.003730,0.002795
0.002928,0.003730,0.002794
0.002929,0.003454,0.002793
0.002930,0.003454,0.002792
0.002867,0.003454,0.002741
0.002868,0.003454,0.002740
0.002869,0.003454,0.002739
0.002869,0.003435,0.002738
0.002782,0.003435,0.002657
0.002782,0.003435,0.002657
0.002783,0.003435,0.002656
0.002784,0.003435,0.002655
0.002725,0.003435,0.002592
0.002726,0.003435,0.002591
0.002727,0.003115,0.002590
0.002728,0.003115,0.002589
0.002728,0.003115,0.002588
0.002641,0.003115,0.002527
0.002641,0.003115,0.002526
0.002642,0.003115,0.002525
0.002643,0.003115,0.002525
0.002582,0.003115,0.002447
0.002582,0.003140,0.002446
0.002583,0.003140,0.002445
0.002584,0.003140,0.002444
0.002500,0.002890,0.002394
0.002500,0.002890,0.002393
0.002501,0.002890,0.002392
0.002502,0.002890,0.002391
0.002440,0.002890,0.002320
0.002441,0.002890,0.002319
0.002442,0.002890,0.002318
0.002442,0.002890,0.002317
0.002443,0.002890,0.002316
0.002384,0.002757,0.002257
0.002385,0.002757,0.002256
0.002385,0.002757,0.002255
0.002386,0.002757,0.002255
0.002318,0.002757,0.002199
0.002319,0.002757,0.002199
0.002319,0.002757,0.002198
0.002320,0.002757,0.002197
0.002246,0.002757,0.002132
0.002246,0.002757,0.002132
0.002247,0.002562,0.002131
0.002248,0.002562,0.002130
0.002188,0.002562,0.002087
0.002188,0.002562,0.002086
0.002189,0.002562,0.002086
0.002189,0.002367,0.002085
0.002116,0.002367,0.002014
0.002117,0.002367,0.002013
0.002117,0.002367,0.002012
0.002118,0.002367,0.002012
0.002118,0.002367,0.002011
0.002061,0.002367,0.001959
0.002062,0.002367,0.001959
0.002062,0.002400,0.001958
0.002063,0.002400,0.001957
0.002012,0.002400,0.001913
0.002013,0.002400,0.001912
0.002013,0.002240,0.001912
0.002014,0.002240,0.001911
0.001945,0.002240,0.001845
0.001945,0.002240,0.001844
0.001946,0.002239,0.001844
0.001946,0.002239,0.001843
0.001891,0.002239,0.001795
0.001891,0.002239,0.001794
0.001892,0.002239,0.001794
0.001892,0.002086,0.001793
0.001893,0.002086,0.001793
0.001839,0.002086,0.001728
0.001840,0.002086,0.001727
0.001840,0.002086,0.001726
0.001841,0.001944,0.001726
0.001771,0.001944,0.001675
0.001772,0.001944,0.001675
0.001772,0.001944,0.001674
0.001773,0.001944,0.001674
0.001715,0.001944,0.001636
0.001716,0.001944,0.001636
0.001716,0.001944,0.001635
0.001717,0.001944,0.001634
0.001677,0.001944,0.001575
0.001677,0.002014,0.001575
0.001678,0.001829,0.001574
0.001678,0.001836,0.001574
0.001613,0.001836,0.001526
0.001613,0.001836,0.001525
0.001614,0.001836,0.001525
0.001614,0.001836,0.001524
0.001614,0.001836,0.001523
0.001560,0.001836,0.001470
0.001561,0.001836,0.001470
0.001561,0.001658,0.001469
0.001562,0.001658,0.001469
0.001505,0.001658,0.001428
0.001506,0.001658,0.001427
0.001506,0.001658,0.001427
0.001506,0.001700,0.001426
0.001460,0.001700,0.001373
0.001460,0.001700,0.001373
0.001460,0.001700,0.001372
0.001461,0.001500,0.001372
0.001403,0.001499,0.001330
0.001403,0.001499,0.001330
0.001404,0.001499,0.001329
0.001404,0.001561,0.001329
0.001405,0.001561,0.001328
0.001356,0.001561,0.001279
0.001356,0.001561,0.001278
0.001356,0.001561,0.001278
0.001357,0.001398,0.001277
0.001302,0.001398,0.001233
0.001303,0.001398,0.001233
0.001303,0.001398,0.001232
0.001304,0.001398,0.001232
0.001257,0.001398,0.001181
0.001258,0.001398,0.001180
0.001258,0.001398,0.001180
0.001258,0.001398,0.001179
0.001205,0.001373,0.001136
0.001205,0.001373,0.001136
0.001206,0.001276,0.001135
0.001206,0.001276,0.001135
0.001155,0.001276,0.001096
0.001156,0.001276,0.001096
0.001156,0.001276,0.001095
0.001156,0.001276,0.001095
0.001157,0.001276,0.001094
0.001114,0.001276,0.001046
0.001114,0.001276,0.001046
0.001115,0.001152,0.001045
0.001115,0.001152,0.001045
0.001062,0.001152,0.001005
0.001063,0.001152,0.001004
0.001063,0.001152,0.001004
0.001063,0.001152,0.001003
0.001017,0.001168,0.000965
0.001017,0.001168,0.000964
0.001018,0.001168,0.000964
0.001018,0.001168,0.000963
0.000971,0.001014,0.000916
0.000971,0.001014,0.000916
0.000972,0.001014,0.000915
0.000972,0.001014,0.000915
0.000972,0.001048,0.000914
0.000920,0.001048,0.000869
0.000921,0.001048,0.000869
0.000921,0.001048,0.000868
0.000921,0.001048,0.000868
0.000874,0.000963,0.000829
0.000874,0.000963,0.000829
0.000874,0.000964,0.000828
0.000875,0.000964,0.000828
0.000838,0.000964,0.000785
0.000838,0.000964,0.000784
0.000839,0.000964,0.000784
0.000839,0.000964,0.000783
0.000788,0.000840,0.000746
0.000789,0.000840,0.000746
0.000789,0.000839,0.000745
0.000789,0.000839,0.000745
0.000743,0.000839,0.000701
0.000744,0.000783,0.000701
0.000744,0.000783,0.000700
0.000744,0.000783,0.000700
0.000698,0.000783,0.000662
0.000699,0.000783,0.000661
0.000699,0.000783,0.000661
0.000699,0.000779,0.000660
0.000700,0.000779,0.000660
0.000657,0.000638,0.000615
0.000657,0.000638,0.000615
0.000658,0.000638,0.000614
0.000658,0.000638,0.000614
0.000612,0.000638,0.000573
0.000613,0.000638,0.000572
0.000613,0.000638,0.000572
0.000614,0.000638,0.000572
0.000569,0.000638,0.000542
0.000570,0.000638,0.000542
0.000570,0.000638,0.000541
0.000570,0.000638,0.000541
0.000525,0.000638,0.000497
0.000525,0.000638,0.000497
0.000525,0.000555,0.000496
0.000526,0.000555,0.000496
0.000483,0.000505,0.000455
0.000483,0.000505,0.000455
0.000484,0.000505,0.000454
0.000484,0.000505,0.000454
0.000484,0.000505,0.000453
0.000438,0.000505,0.000419
0.000439,0.000505,0.000419
0.000439,0.000505,0.000418
0.000439,0.000505,0.000418
0.000395,0.000505,0.000376
0.000396,0.000441,0.000376
0.000396,0.000440,0.000375
0.000396,0.000440,0.000375
0.000359,0.000321,0.000337
0.000359,0.000320,0.000336
0.000359,0.000320,0.000336
0.000360,0.000320,0.000335
0.000314,0.000365,0.000295
0.000314,0.000365,0.000294
0.000314,0.000365,0.000294
0.000315,0.000365,0.000294
0.000270,0.000365,0.000253
0.000270,0.000365,0.000253
0.000271,0.000365,0.000252
0.000271,0.000365,0.000252
0.000271,0.000210,0.000251
0.000229,0.000210,0.000219
0.000229,0.000210,0.000218
0.000229,0.000210,0.000218
0.000230,0.000210,0.000217
0.000187,0.000210,0.000177
0.000188,0.000210,0.000176
0.000188,0.000210,0.000176
0.000189,0.000210,0.000175
0.000146,0.000217,0.000136
0.000146,0.000217,0.000135
0.000146,0.000080,0.000135
0.000147,0.000080,0.000134
0.000105,0.000079,0.000099
0.000106,0.000079,0.000099
0.000106,0.000079,0.000098
0.000106,0.000079,0.000098
0.000063,0.000079,0.000062
0.000063,0.000079,0.000062
0.000063,0.000099,0.000062
0.000064,0.000099,0.000061
0.000020,0.000099,0.000022
0.000020,0.000099,0.000021
0.000021,0.000033,0.000021
0.000021,-0.000010,0.000020
0.000021,-0.000010,0.000020
-0.000016,-0.000010,-0.000019
-0.000016,-0.000010,-0.000020
-0.000015,-0.000010,-0.000020
-0.000015,-0.000010,-0.000020
-0.000061,-0.000010,-0.000058
-0.000061,-0.000010,-0.000058
-0.000060,-0.000010,-0.000059
-0.000060,-0.000107,-0.000059
-0.000104,-0.000107,-0.000096
-0.000104,-0.000107,-0.000097
-0.000104,-0.000107,-0.000097
-0.000103,-0.000187,-0.000098
-0.000147,-0.000187,-0.000136
-0.000147,-0.000187,-0.000137
-0.000147,-0.000187,-0.000137
-0.000146,-0.000187,-0.000138
-0.000191,-0.000187,-0.000178
-0.000191,-0.000187,-0.000178
-0.000191,-0.000187,-0.000179
-0.000190,-0.000187,-0.000179
-0.000190,-0.000187,-0.000180
-0.000228,-0.000321,-0.000217
-0.000228,-0.000306,-0.000217
-0.000227,-0.000306,-0.000218
-0.000227,-0.000306,-0.000218
-0.000273,-0.000306,-0.000255
-0.000273,-0.000306,-0.000256
-0.000272,-0.000306,-0.000256
-0.000272,-0.000306,-0.000256
-0.000319,-0.000307,-0.000295
-0.000319,-0.000307,-0.000296
-0.000319,-0.000307,-0.000296
-0.000318,-0.000307,-0.000296
-0.000351,-0.000307,-0.000337
-0.000351,-0.000379,-0.000338
-0.000350,-0.000379,-0.000338
-0.000350,-0.000426,-0.000339
-0.000396,-0.000426,-0.000372
-0.000396,-0.000426,-0.000372
-0.000396,-0.000426,-0.000373
-0.000395,-0.000426,-0.000373
-0.000395,-0.000426,-0.000374
-0.000443,-0.000426,-0.000413
-0.000443,-0.000426,-0.000414
-0.000442,-0.000426,-0.000414
-0.000442,-0.000563,-0.000414
-0.000485,-0.000563,-0.000457
-0.000485,-0.000563,-0.000457
-0.000485,-0.000563,-0.000457
-0.000484,-0.000563,-0.000458
-0.000531,-0.000536,-0.000496
-0.000530,-0.000536,-0.000496
-0.000530,-0.000536,-0.000497
-0.000530,-0.000537,-0.000497
-0.000571,-0.000537,-0.000539
-0.000571,-0.000537,-0.000539
-0.000571,-0.000673,-0.000540
-0.000570,-0.000673,-0.000540
-0.000615,-0.000673,-0.000572
-0.000615,-0.000673,-0.000572
-0.000614,-0.000638,-0.000573
-0.000614,-0.000638,-0.000573
-0.000613,-0.000638,-0.000574
-0.000658,-0.000638,-0.000615
-0.000657,-0.000638,-0.000616
-0.000657,-0.000821,-0.000616
-0.000657,-0.000821,-0.000617
-0.000704,-0.000821,-0.000662
-0.000703,-0.000821,-0.000663
-0.000703,-0.000821,-0.000663
-0.000703,-0.000821,-0.000664
-0.000747,-0.000821,-0.000702
-0.000747,-0.000821,-0.000702
-0.000747,-0.000821,-0.000703
-0.000746,-0.000821,-0.000703
-0.000793,-0.000816,-0.000747
-0.000793,-0.000816,-0.000747
-0.000792,-0.000886,-0.000748
-0.000792,-0.000886,-0.000748
-0.000833,-0.000886,-0.000783
-0.000833,-0.000886,-0.000783
-0.000833,-0.000886,-0.000784
-0.000832,-0.000886,-0.000784
-0.000879,-0.000886,-0.000825
-0.000878,-0.000886,-0.000825
-0.000878,-0.001016,-0.000826
-0.000877,-0.001016,-0.000826
-0.000877,-0.001016,-0.000827
-0.000922,-0.001016,-0.000866
-0.000922,-0.001038,-0.000866
-0.000921,-0.001038,-0.000867
-0.000921,-0.001038,-0.000867
-0.000971,-0.001038,-0.000913
-0.000971,-0.001038,-0.000913
-0.000971,-0.001038,-0.000914
-0.000970,-0.001038,-0.000914
-0.001018,-0.001178,-0.000959
-0.001018,-0.001178,-0.000960
-0.001017,-0.001178,-0.000960
-0.001017,-0.001178,-0.000961
-0.001062,-0.001178,-0.000999
-0.001062,-0.001178,-0.000999
-0.001062,-0.001178,-0.001000
-0.001061,-0.001178,-0.001000
-0.001113,-0.001178,-0.001046
-0.001113,-0.001178,-0.001046
-0.001112,-0.001293,-0.001047
-0.001112,-0.001257,-0.001047
-0.001112,-0.001257,-0.001048
-0.001156,-0.001257,-0.001089
-0.001156,-0.001257,-0.001090
-0.001155,-0.001257,-0.001090
-0.001155,-0.001257,-0.001091
-0.001206,-0.001258,-0.001139
-0.001206,-0.001258,-0.001139
-0.001205,-0.001258,-0.001140
-0.001205,-0.001423,-0.001140
-0.001255,-0.001423,-0.001183
-0.001255,-0.001423,-0.001183
-0.001255,-0.001423,-0.001184
-0.001254,-0.001423,-0.001185
-0.001308,-0.001423,-0.001236
-0.001307,-0.001404,-0.001236
-0.001307,-0.001404,-0.001237
-0.001307,-0.001404,-0.001237
-0.001306,-0.001404,-0.001238
-0.001354,-0.001559,-0.001275
-0.001354,-0.001559,-0.001276
-0.001353,-0.001559,-0.001276
-0.001353,-0.001559,-0.001277
-0.001410,-0.001559,-0.001320
-0.001410,-0.001559,-0.001321
-0.001409,-0.001559,-0.001321
-0.001409,-0.001559,-0.001322
-0.001456,-0.001623,-0.001376
-0.001455,-0.001623,-0.001376
-0.001455,-0.001743,-0.001377
-0.001454,-0.001743,-0.001377
-0.001508,-0.001743,-0.001424
-0.001508,-0.001743,-0.001424
-0.001507,-0.001743,-0.001425
-0.001507,-0.001692,-0.001425
-0.001566,-0.001692,-0.001482
-0.001565,-0.001692,-0.001482
-0.001565,-0.001692,-0.001483
-0.001564,-0.001692,-0.001483
-0.001564,-0.001692,-0.001484
-0.001612,-0.001691,-0.001525
-0.001612,-0.001691,-0.001526
-0.001611,-0.001691,-0.001526
-0.001611,-0.001920,-0.001527
-0.001670,-0.001920,-0.001574
-0.001670,-0.001920,-0.001575
-0.001669,-0.001917,-0.001575
-0.001669,-0.001917,-0.001576
-0.001723,-0.001917,-0.001637
-0.001722,-0.001917,-0.001638
-0.001722,-0.001917,-0.001638
-0.001721,-0.001917,-0.001639
-0.001788,-0.001917,-0.001680
-0.001788,-0.001917,-0.001681
-0.001787,-0.002034,-0.001682
-0.001787,-0.002034,-0.001682
-0.001786,-0.002034,-0.001683
-0.001833,-0.002034,-0.001741
-0.001832,-0.002034,-0.001741
-0.001831,-0.002179,-0.001742
-0.001831,-0.002179,-0.001743
-0.001887,-0.002179,-0.001784
-0.001887,-0.002179,-0.001785
-0.001886,-0.002179,-0.001785
-0.001886,-0.002179,-0.001786
-0.001956,-0.002179,-0.001835
-0.001956,-0.002179,-0.001836
-0.001955,-0.002179,-0.001836
-0.001954,-0.002205,-0.001837
-0.002004,-0.002205,-0.001902
-0.002003,-0.002205,-0.001903
-0.002003,-0.002441,-0.001903
-0.002002,-0.002441,-0.001904
-0.002068,-0.002441,-0.001951
-0.002067,-0.002441,-0.001951
-0.002067,-0.002441,-0.001952
-0.002066,-0.002367,-0.001953
-0.002066,-0.002367,-0.001953
-0.002121,-0.002368,-0.002019
-0.002120,-0.002368,-0.002020
-0.002120,-0.002368,-0.002020
-0.002119,-0.002590,-0.002021
-0.002192,-0.002590,-0.002074
-0.002191,-0.002590,-0.002074
-0.002191,-0.002516,-0.002075
-0.002190,-0.002517,-0.002076
-0.002251,-0.002517,-0.002145
-0.002251,-0.002517,-0.002145
-0.002250,-0.002517,-0.002146
-0.002250,-0.002517,-0.002147
-0.002312,-0.002517,-0.002194
-0.002311,-0.002806,-0.002195
-0.002310,-0.002806,-0.002196
-0.002310,-0.002806,-0.002196
-0.002309,-0.002806,-0.002197
-0.002373,-0.002806,-0.002250
-0.002373,-0.002806,-0.002251
-0.002372,-0.002806,-0.002252
-0.002371,-0.002806,-0.002252
-0.002447,-0.002806,-0.002328
-0.002446,-0.002806,-0.002329
-0.002445,-0.002723,-0.002330
-0.002445,-0.003016,-0.002331
-0.002502,-0.003078,-0.002387
-0.002502,-0.003078,-0.002388
-0.002501,-0.003078,-0.002389
-0.002500,-0.003078,-0.002389
-0.002582,-0.003078,-0.002465
-0.002581,-0.003078,-0.002466
-0.002580,-0.003078,-0.002467
-0.002580,-0.003078,-0.002467
-0.002646,-0.003078,-0.002519
-0.002646,-0.003078,-0.002519
-0.002645,-0.003078,-0.002520
-0.002644,-0.003057,-0.002521
-0.002643,-0.003057,-0.002522
-0.002713,-0.003058,-0.002578
-0.002712,-0.003400,-0.002579
-0.002712,-0.003400,-0.002580
-0.002711,-0.003400,-0.002581
-0.002794,-0.003400,-0.002667
-0.002794,-0.003401,-0.002668
-0.002793,-0.003401,-0.002669
-0.002792,-0.003401,-0.002669
-0.002853,-0.003401,-0.002729
-0.002852,-0.003401,-0.002730
-0.002851,-0.003401,-0.002731
-0.002850,-0.003401,-0.002732
-0.002942,-0.003401,-0.002816
-0.002941,-0.003401,-0.002817
-0.002940,-0.003401,-0.002818
-0.002939,-0.003748,-0.002819
-0.002938,-0.003749,-0.002820
-0.003011,-0.003720,-0.002875
-0.003010,-0.003720,-0.002876
-0.003009,-0.003720,-0.002877
-0.003008,-0.003721,-0.002878
-0.003079,-0.003721,-0.002937
-0.003078,-0.003721,-0.002938
-0.003077,-0.003721,-0.002939
-0.003077,-0.003721,-0.002940
-0.003180,-0.003918,-0.003038
-0.003180,-0.003918,-0.003039
-0.003179,-0.003918,-0.003040
-0.003178,-0.003918,-0.003041
-0.003236,-0.004292,-0.003106
-0.003235,-0.004292,-0.003107
-0.003234,-0.004292,-0.003108
-0.003233,-0.004292,-0.003109
-0.003305,-0.004292,-0.003205
-0.003304,-0.004292,-0.003206
-0.003303,-0.004292,-0.003207
-0.003302,-0.004292,-0.003208
-0.003300,-0.004292,-0.003209
-0.003414,-0.004292,-0.003269
-0.003413,-0.004293,-0.003270
-0.003412,-0.004293,-0.003271
-0.003411,-0.004293,-0.003272
-0.003477,-0.004129,-0.003335
-0.003476,-0.004816,-0.003336
-0.003475,-0.004669,-0.003337
-0.003474,-0.004669,-0.003338
-0.003589,-0.004669,-0.003451
-0.003588,-0.004669,-0.003452
-0.003587,-0.004669,-0.003454
-0.003586,-0.004669,-0.003455
-0.003684,-0.004669,-0.003521
-0.003683,-0.004669,-0.003522
-0.003682,-0.004669,-0.003524
-0.003681,-0.004669,-0.003525
-0.003680,-0.005143,-0.003526
-0.003754,-0.005143,-0.003633
-0.003753,-0.005143,-0.003635
-0.003752,-0.005143,-0.003636
-0.003750,-0.005143,-0.003637
-0.003814,-0.004989,-0.003733
-0.003813,-0.004989,-0.003735
-0.003812,-0.004989,-0.003736
-0.003810,-0.004989,-0.003737
-0.003935,-0.004989,-0.003808
-0.003934,-0.004989,-0.003809
-0.003933,-0.005508,-0.003811
-0.003931,-0.005508,-0.003812
-0.003990,-0.005508,-0.003867
-0.003989,-0.005508,-0.003869
-0.003988,-0.005508,-0.003870
-0.003986,-0.005446,-0.003872
-0.004116,-0.005446,-0.004001
-0.004114,-0.005446,-0.004002
-0.004113,-0.005446,-0.004004
-0.004111,-0.005446,-0.004005
-0.004110,-0.006140,-0.004007
-0.004190,-0.006140,-0.004067
-0.004188,-0.006140,-0.004069
-0.004187,-0.006140,-0.004070
-0.004185,-0.006140,-0.004072
-0.004324,-0.006140,-0.004220
-0.004322,-0.006140,-0.004222
-0.004321,-0.006140,-0.004224
-0.004319,-0.006140,-0.004225
-0.004392,-0.005923,-0.004302
-0.004390,-0.005923,-0.004303
-0.004388,-0.005923,-0.004305
-0.004387,-0.006636,-0.004307
-0.004447,-0.006636,-0.004368
-0.004445,-0.006678,-0.004370
-0.004443,-0.006678,-0.004372
-0.004441,-0.006678,-0.004374
-0.004440,-0.006678,-0.004375
-0.004601,-0.006678,-0.004538
-0.004599,-0.006678,-0.004539
-0.004598,-0.006678,-0.004541
-0.004596,-0.007064,-0.004543
-0.004708,-0.007064,-0.004610
-0.004706,-0.007064,-0.004612
-0.004704,-0.007270,-0.004614
-0.004702,-0.007270,-0.004616
-0.004791,-0.007270,-0.004666
-0.004789,-0.007270,-0.004668
-0.004787,-0.007270,-0.004670
-0.004784,-0.007269,-0.004672
-0.004844,-0.007636,-0.004872
-0.004842,-0.007636,-0.004875
-0.004840,-0.007636,-0.004877
-0.004838,-0.007636,-0.004879
-0.005044,-0.007636,-0.004897
-0.005042,-0.007958,-0.004900
-0.005039,-0.007957,-0.004902
-0.005037,-0.007957,-0.004905
-0.005035,-0.007957,-0.004907
-0.005126,-0.007957,-0.005129
-0.005124,-0.007957,-0.005132
-0.005121,-0.007957,-0.005135
-0.005119,-0.007957,-0.005137
-0.004942,-0.007733,-0.004954
-0.004939,-0.007733,-0.004957
-0.004936,-0.007732,-0.004959
-0.004933,-0.007732,-0.004962
-0.004638,-0.007732,-0.004623
-0.004636,-0.007314,-0.004626
-0.004633,-0.007314,-0.004629
-0.004630,-0.007314,-0.004632
-0.004515,-0.007314,-0.004491
-0.004512,-0.007314,-0.004494
-0.004509,-0.007315,-0.004497
-0.004506,-0.007315,-0.004500
-0.004073,-0.006418,-0.004077
-0.004070,-0.006418,-0.004080
-0.004067,-0.006418,-0.004083
-0.004064,-0.006418,-0.004086
-0.004060,-0.006418,-0.004089
-0.003943,-0.006418,-0.003828
-0.003940,-0.006418,-0.003832
-0.003937,-0.006418,-0.003835
-0.003934,-0.006418,-0.003838
-0.003564,-0.005932,-0.003696
-0.003561,-0.005932,-0.003700
-0.003558,-0.005932,-0.003703
-0.003555,-0.005235,-0.003707
-0.003278,-0.005235,-0.003268
-0.003274,-0.005235,-0.003272
-0.003270,-0.005235,-0.003275
-0.003267,-0.005235,-0.003279
-0.003062,-0.005235,-0.003207
-0.003059,-0.005235,-0.003211
-0.003055,-0.005235,-0.003214
-0.003052,-0.005235,-0.003218
-0.003048,-0.005235,-0.003221
-0.002945,-0.005235,-0.002632
-0.002942,-0.004986,-0.002636
-0.002938,-0.003917,-0.002640
-0.002935,-0.003917,-0.002643
-0.002404,-0.003917,-0.002435
-0.002400,-0.003917,-0.002439
-0.002396,-0.003917,-0.002442
-0.002393,-0.003917,-0.002446
-0.002212,-0.003917,-0.002302
-0.002208,-0.003917,-0.002306
-0.002204,-0.003917,-0.002310
-0.002201,-0.003917,-0.002314
-0.001848,-0.003917,-0.001894
-0.001845,-0.003117,-0.001898
-0.001841,-0.003117,-0.001902
-0.001837,-0.002710,-0.001905
-0.001663,-0.002710,-0.001698
-0.001659,-0.002710,-0.001702
-0.001655,-0.002710,-0.001706
-0.001652,-0.002710,-0.001709
-0.001648,-0.002710,-0.001713
-0.001321,-0.002710,-0.001563
-0.001317,-0.002710,-0.001567
-0.001313,-0.002710,-0.001570
-0.001309,-0.002710,-0.001574
-0.001112,-0.002122,-0.000986
-0.001108,-0.001808,-0.000990
-0.001104,-0.001808,-0.000994
-0.001100,-0.001808,-0.000998
-0.000955,-0.001808,-0.000854
-0.000951,-0.001808,-0.000858
-0.000947,-0.001808,-0.000862
-0.000943,-0.001807,-0.000866
-0.000424,-0.001807,-0.000752
-0.000420,-0.001807,-0.000756
-0.000416,-0.000978,-0.000760
-0.000412,-0.000978,-0.000764
-0.000408,-0.000978,-0.000768
-0.000291,-0.000978,-0.000377
-0.000287,-0.000978,-0.000381
-0.000283,-0.000978,-0.000385
-0.000279,-0.000978,-0.000389
0.000018,-0.000978,-0.000271
0.000022,-0.000977,-0.000275
0.000026,-0.000977,-0.000279
0.000031,-0.000771,-0.000283
0.000212,-0.000771,0.000267
0.000217,-0.000771,0.000263
0.000221,-0.000771,0.000259
0.000225,-0.000771,0.000255
0.000369,0.000013,0.000389
0.000373,0.000013,0.000385
0.000377,0.000013,0.000381
0.000381,0.000012,0.000377
0.000911,0.000012,0.000729
0.000915,0.000767,0.000725
0.000919,0.000767,0.000721
0.000923,0.000767,0.000717
0.000927,0.000767,0.000713
0.001058,0.000768,0.000896
0.001062,0.000768,0.000891
0.001066,0.000768,0.000887
0.001070,0.000768,0.000883
0.001413,0.000768,0.001051
0.001417,0.000769,0.001047
0.001421,0.001209,0.001043
0.001426,0.001209,0.001039
0.001577,0.001209,0.001434
0.001581,0.001209,0.001430
0.001585,0.001209,0.001426
0.001590,0.001209,0.001422
0.001722,0.001210,0.001572
0.001726,0.001210,0.001567
0.001731,0.001210,0.001563
0.001735,0.001850,0.001559
0.001739,0.002266,0.001555
0.002272,0.002266,0.002135
0.002276,0.002267,0.002130
0.002280,0.002267,0.002126
0.002284,0.002436,0.002122
0.002420,0.002436,0.002277
0.002424,0.002436,0.002273
0.002428,0.002436,0.002269
0.002432,0.002436,0.002265
0.002792,0.002436,0.002445
0.002796,0.002436,0.002441
0.002800,0.002436,0.002437
0.002804,0.002436,0.002433
0.002986,0.003190,0.002761
0.002990,0.003190,0.002757
0.002994,0.003190,0.002753
0.002999,0.003190,0.002749
0.003188,0.003659,0.002858
0.003192,0.003659,0.002854
0.003196,0.003659,0.002850
0.003200,0.003659,0.002845
0.003205,0.003659,0.002841
0.003558,0.003659,0.003400
0.003562,0.003659,0.003395
0.003567,0.003659,0.003391
0.003571,0.003804,0.003387
0.003727,0.003804,0.003549
0.003731,0.003804,0.003545
0.003735,0.003805,0.003541
0.003739,0.003805,0.003537
0.004263,0.003805,0.003734
0.004267,0.004313,0.003730
0.004271,0.004314,0.003726
0.004275,0.005127,0.003722
0.004407,0.005127,0.004081
0.004412,0.005127,0.004077
0.004416,0.005127,0.004073
0.004420,0.005127,0.004069
0.004424,0.005127,0.004065
0.004589,0.005127,0.004226
0.004594,0.005127,0.004222
0.004598,0.005300,0.004218
0.004602,0.005300,0.004214
0.004926,0.005300,0.004615
0.004930,0.005300,0.004611
0.004934,0.005300,0.004607
0.004938,0.005300,0.004603
0.005290,0.005300,0.004996
0.005294,0.005448,0.004992
0.005298,0.005448,0.004988
0.005302,0.005448,0.004984
0.005473,0.006417,0.005147
0.005477,0.006418,0.005143
0.005481,0.006418,0.005139
0.005485,0.006418,0.005135
0.005685,0.006418,0.005351
0.005689,0.006418,0.005347
0.005693,0.007064,0.005343
0.005697,0.007064,0.005339
0.005701,0.007064,0.005335
0.006233,0.007064,0.005698
0.006236,0.007064,0.005694
0.006240,0.007064,0.005690
0.006244,0.007064,0.005686
0.006354,0.007064,0.005875
0.006358,0.007064,0.005872
0.006362,0.007064,0.005868
0.006366,0.007064,0.005864
0.006737,0.007064,0.006257
0.006741,0.007064,0.006254
0.006745,0.007064,0.006250
0.006749,0.007531,0.006246
0.006902,0.008290,0.006447
0.006906,0.008290,0.006444
0.006910,0.008290,0.006440
0.006914,0.008291,0.006436
0.006917,0.008434,0.006433
0.007332,0.008434,0.006881
0.007335,0.008434,0.006877
0.007339,0.008434,0.006874
0.007343,0.008434,0.006870
0.007525,0.008434,0.007264
0.007529,0.009016,0.007261
0.007533,0.009530,0.007257
0.007536,0.009530,0.007254
0.007781,0.009530,0.007358
0.007785,0.009530,0.007355
0.007788,0.009530,0.007351
0.007792,0.009530,0.007348
0.008338,0.009530,0.007773
0.008341,0.009530,0.007770
0.008345,0.009530,0.007766
0.008348,0.010452,0.007763
0.008460,0.010452,0.007947
0.008464,0.010452,0.007943
0.008467,0.010452,0.007940
0.008471,0.010452,0.007937
0.008474,0.010452,0.007933
0.008892,0.010452,0.008217
0.008895,0.010453,0.008214
0.008898,0.010453,0.008211
0.008902,0.010761,0.008207
0.009030,0.010761,0.008670
0.009034,0.010761,0.008667
0.009037,0.010761,0.008664
0.009040,0.010761,0.008661
0.009262,0.011754,0.008832
0.009265,0.011754,0.008829
0.009269,0.011754,0.008826
0.009272,0.011754,0.008823
0.009860,0.011754,0.009106
0.009863,0.011754,0.009103
0.009866,0.012203,0.009100
0.009869,0.012203,0.009097
0.009872,0.012203,0.009094
0.010012,0.012203,0.009690
0.010015,0.012845,0.009687
0.010017,0.012845,0.009684
0.010020,0.012845,0.009681
0.010285,0.012845,0.009825
0.010288,0.012845,0.009822
0.010291,0.012845,0.009819
0.010294,0.012845,0.009817
0.010845,0.013943,0.010151
0.010847,0.013943,0.010148
0.010850,0.013943,0.010146
0.010852,0.013943,0.010143
0.010960,0.013943,0.010450
0.010963,0.013943,0.010448
0.010965,0.013942,0.010445
0.010968,0.014304,0.010443
0.011283,0.014304,0.010748
0.011285,0.014305,0.010746
0.011288,0.014305,0.010744
0.011290,0.014305,0.010742
0.011293,0.014305,0.010740
0.011525,0.014350,0.010984
0.011527,0.014350,0.010982
0.011529,0.014351,0.010980
0.011531,0.014351,0.010978
0.011365,0.014351,0.010785
0.011367,0.014351,0.010783
0.011369,0.014351,0.010781
0.011371,0.014351,0.010780
0.011410,0.014351,0.010816
0.011412,0.014352,0.010814
0.011413,0.014352,0.010813
0.011415,0.014562,0.010811
0.011310,0.014562,0.010788
0.011311,0.014562,0.010787
0.011313,0.014561,0.010785
0.011314,0.013980,0.010784
0.011375,0.013653,0.010641
0.011376,0.013653,0.010640
0.011378,0.013949,0.010639
0.011379,0.013949,0.010637
0.011380,0.013949,0.010636
0.011237,0.013949,0.010650
0.011239,0.013949,0.010649
0.011240,0.013949,0.010648
0.011241,0.013949,0.010647
0.011239,0.013949,0.010539
0.011240,0.013949,0.010538
0.011242,0.013429,0.010537
0.011243,0.013429,0.010536
0.011148,0.013429,0.010548
0.011149,0.013429,0.010547
0.011150,0.013429,0.010546
0.011151,0.013284,0.010545
0.011174,0.013284,0.010510
0.011175,0.013284,0.010510
0.011177,0.013284,0.010509
0.011178,0.013284,0.010508
0.011120,0.013284,0.010460
0.011121,0.013284,0.010459
0.011121,0.013023,0.010459
0.011122,0.013023,0.010458
0.011123,0.013023,0.010457
0.011108,0.013023,0.010375
0.011109,0.013010,0.010374
0.011110,0.013010,0.010374
0.011110,0.013010,0.010373
0.011031,0.013010,0.010397
0.011032,0.013010,0.010396
0.011032,0.013010,0.010395
0.011033,0.013010,0.010395
0.011047,0.013010,0.010362
0.011048,0.013010,0.010361
0.011049,0.013010,0.010361
0.011049,0.012688,0.010360
0.011050,0.012688,0.010310
0.011051,0.012688,0.010309
0.011051,0.012688,0.010309
0.011051,0.012688,0.010308
0.011011,0.012688,0.010366
0.011011,0.012688,0.010366
0.011012,0.012688,0.010366
0.011012,0.012688,0.010365
0.011028,0.012757,0.010285
0.011028,0.012757,0.010285
0.011029,0.012757,0.010285
0.011029,0.012757,0.010285
0.011029,0.012757,0.010284
0.010978,0.012598,0.010308
0.010978,0.012598,0.010308
0.010978,0.012598,0.010308
0.010979,0.012545,0.010308
0.011008,0.012545,0.010304
0.011008,0.012545,0.010304
0.011009,0.012545,0.010304
0.011009,0.012545,0.010304
0.011022,0.012545,0.010256
0.011022,0.012545,0.010256
0.011022,0.012545,0.010256
0.011022,0.012545,0.010256
0.010994,0.012545,0.010304
0.010994,0.012545,0.010304
0.010994,0.012545,0.010304
0.010994,0.012545,0.010304
0.011036,0.012543,0.010271
0.011036,0.012543,0.010271
0.011036,0.012525,0.010271
0.011036,0.012525,0.010271
0.011037,0.012525,0.010271
0.011041,0.012526,0.010333
0.011041,0.012526,0.010333
0.011041,0.012526,0.010333
0.011041,0.012526,0.010333
0.011025,0.012526,0.010319
0.011025,0.012526,0.010319
0.011025,0.012526,0.010319
0.011024,0.012526,0.010319
0.011085,0.012555,0.010367
0.011084,0.012555,0.010367
0.011084,0.012555,0.010368
0.011084,0.012555,0.010368
0.011073,0.012555,0.010373
0.011073,0.012616,0.010374
0.011073,0.012616,0.010374
0.011072,0.012616,0.010374
0.011138,0.012616,0.010364
0.011138,0.012616,0.010365
0.011138,0.012617,0.010365
0.011138,0.012617,0.010366
0.011137,0.012617,0.010366
0.011178,0.012617,0.010450
0.011177,0.012617,0.010450
0.011177,0.012820,0.010451
0.011177,0.012820,0.010451
0.011203,0.012820,0.010453
0.011202,0.012820,0.010453
0.011202,0.012820,0.010454
0.011201,0.012820,0.010454
0.011223,0.012820,0.010519
0.011223,0.012820,0.010519
0.011222,0.012820,0.010520
0.011221,0.012705,0.010521
0.011293,0.012705,0.010570
0.011293,0.012705,0.010570
0.011292,0.013069,0.010571
0.011291,0.013069,0.010572
0.011298,0.013069,0.010614
0.011297,0.013069,0.010614
0.011297,0.013069,0.010615
0.011296,0.013069,0.010616
0.011295,0.013069,0.010617
0.011387,0.013069,0.010628
0.011387,0.013069,0.010629
0.011386,0.013069,0.010630
0.011385,0.013007,0.010630
0.011401,0.013007,0.010737
0.011400,0.013372,0.010738
0.011399,0.013261,0.010739
0.011398,0.013261,0.010740
0.011505,0.013261,0.010775
0.011504,0.013261,0.010776
0.011503,0.013261,0.010777
0.011502,0.013261,0.010778
0.011579,0.013261,0.010799
0.011578,0.013261,0.010800
0.011577,0.013702,0.010801
0.011576,0.013702,0.010802
0.011635,0.013702,0.010938
0.011634,0.013702,0.010939
0.011633,0.013702,0.010940
0.011631,0.013657,0.010941
0.011664,0.013657,0.010995
0.011662,0.013657,0.010996
0.011661,0.013657,0.010997
0.011660,0.013657,0.010998
0.011659,0.013657,0.011000
0.011789,0.014282,0.011106
0.011787,0.014282,0.011107
0.011786,0.014282,0.011108
0.011785,0.014282,0.011110
0.011838,0.014282,0.011108
0.011836,0.014282,0.011109
0.011835,0.014282,0.011111
0.011833,0.014282,0.011112
0.011881,0.014282,0.011252
0.011880,0.014282,0.011254
0.011878,0.014282,0.011256
0.011877,0.014282,0.011257
0.012053,0.014144,0.011288
0.012051,0.014144,0.011289
0.012049,0.014143,0.011291
0.012048,0.015035,0.011293
0.012059,0.015035,0.011486
0.012057,0.015035,0.011488
0.012055,0.014752,0.011490
0.012053,0.014752,0.011492
0.012052,0.014752,0.011494
0.012216,0.014752,0.011476
0.012214,0.014753,0.011478
0.012212,0.014753,0.011480
0.012211,0.014753,0.011482
0.012287,0.014753,0.011657
0.012285,0.015684,0.011659
0.012283,0.015684,0.011661
0.012281,0.015684,0.011663
0.012272,0.015684,0.011658
0.012269,0.015684,0.011660
0.012267,0.015684,0.011662
0.012265,0.015684,0.011664
0.012454,0.015684,0.011900
0.012452,0.015684,0.011902
0.012449,0.015684,0.011905
0.012447,0.015684,0.011907
0.012452,0.015257,0.011712
0.012450,0.015257,0.011715
0.012447,0.015257,0.011718
0.012444,0.015257,0.011720
0.012442,0.015257,0.011723
0.012055,0.015257,0.011444
0.012052,0.015257,0.011447
0.012049,0.015257,0.011450
0.012046,0.015257,0.011452
0.011772,0.015257,0.011189
0.011769,0.014733,0.011192
0.011766,0.014733,0.011195
0.011763,0.014733,0.011198
0.011658,0.014733,0.010931
0.011655,0.014733,0.010934
0.011652,0.014733,0.010938
0.011649,0.013895,0.010941
0.011179,0.013895,0.010643
0.011176,0.013679,0.010647
0.011172,0.013679,0.010650
0.011169,0.013680,0.010653
0.011080,0.013680,0.010388
0.011076,0.013398,0.010392
0.011073,0.013398,0.010395
0.011070,0.013398,0.010399
0.011066,0.013398,0.010402
0.010679,0.013398,0.010070
0.010676,0.013398,0.010074
0.010672,0.012629,0.010077
0.010669,0.012629,0.010081
0.010383,0.012629,0.009817
0.010379,0.012432,0.009821
0.010375,0.012432,0.009825
0.010372,0.012432,0.009828
0.010172,0.012432,0.009696
0.010168,0.012432,0.009700
0.010164,0.012432,0.009704
0.010160,0.012432,0.009708
0.010065,0.012432,0.009300
0.010061,0.011610,0.009304
0.010057,0.011609,0.009308
0.010053,0.011609,0.009311
0.010049,0.011609,0.009315
0.009677,0.011355,0.009093
0.009673,0.011355,0.009097
0.009669,0.011355,0.009101
0.009665,0.011355,0.009105
0.009468,0.011355,0.008983
0.009464,0.011355,0.008987
0.009460,0.011355,0.008991
0.009456,0.010580,0.008995
0.009347,0.010580,0.008571
0.009343,0.010580,0.008575
0.009339,0.010580,0.008579
0.009335,0.010581,0.008583
0.008808,0.010318,0.008514
0.008803,0.010318,0.008518
0.008799,0.010318,0.008522
0.008795,0.010318,0.008526
0.008638,0.010318,0.007974
0.008634,0.010318,0.007978
0.008629,0.010318,0.007983
0.008625,0.010318,0.007987
0.008621,0.010000,0.007991
0.008520,0.010000,0.007860
0.008516,0.010000,0.007864
0.008512,0.010000,0.007868
0.008507,0.009999,0.007872
0.008188,0.009384,0.007812
0.008184,0.009384,0.007816
0.008180,0.009383,0.007820
0.008175,0.009383,0.007825
0.008025,0.009383,0.007488
0.008021,0.008860,0.007492
0.008016,0.008860,0.007496
0.008012,0.008860,0.007501
0.007932,0.008860,0.007126
0.007927,0.008860,0.007131
0.007923,0.008860,0.007135
0.007918,0.008860,0.007140
0.007914,0.008860,0.007144
0.007432,0.008439,0.006991
0.007427,0.008439,0.006995
0.007423,0.008439,0.007000
0.007418,0.008438,0.007004
0.007281,0.008438,0.006911
0.007276,0.008438,0.006915
0.007272,0.008438,0.006920
0.007267,0.007960,0.006924
0.007170,0.007960,0.006548
0.007166,0.007959,0.006552
0.007161,0.007959,0.006557
0.007156,0.007959,0.006562
0.006798,0.007959,0.006473
0.006793,0.007959,0.006478
0.006788,0.007959,0.006482
0.006784,0.007959,0.006487
0.006659,0.007285,0.006150
0.006655,0.007285,0.006155
0.006650,0.007516,0.006160
0.006645,0.007516,0.006165
0.006640,0.006900,0.006169
0.006565,0.006900,0.006019
0.006560,0.006900,0.006024
0.006556,0.006900,0.006029
0.006551,0.006899,0.006034
0.006076,0.006899,0.005710
0.006072,0.006899,0.005715
0.006067,0.006899,0.005720
0.006062,0.006898,0.005725
0.005995,0.006898,0.005580
0.005990,0.006977,0.005584
0.005985,0.006976,0.005589
0.005981,0.006976,0.005594
0.005712,0.005996,0.005498
0.005707,0.005996,0.005503
0.005702,0.005996,0.005507
0.005698,0.005996,0.005512
0.005693,0.005996,0.005517
0.005599,0.005996,0.005169
0.005594,0.005996,0.005174
0.005589,0.005996,0.005178
0.005585,0.006098,0.005183
0.005533,0.006098,0.005105
0.005528,0.006098,0.005110
0.005523,0.006098,0.005115
0.005519,0.006098,0.005120
0.005053,0.005582,0.004597
0.005049,0.005582,0.004602
0.005044,0.005582,0.004607
0.005039,0.005582,0.004612
0.004977,0.005582,0.004536
0.004972,0.005385,0.004541
0.004967,0.005385,0.004546
0.004963,0.005385,0.004550
0.004694,0.005385,0.004495
0.004689,0.005385,0.004500
0.004684,0.005094,0.004505
0.004679,0.005094,0.004510
0.004674,0.005094,0.004515
0.004592,0.005093,0.004206
0.004587,0.005093,0.004211
0.004582,0.005093,0.004216
0.004577,0.005093,0.004221
0.004530,0.005093,0.004179
0.004525,0.005093,0.004184
0.004520,0.005093,0.004189
0.004515,0.005093,0.004194
0.004054,0.005093,0.003682
0.004049,0.005092,0.003687
0.004044,0.004004,0.003692
0.004039,0.004004,0.003697
0.003988,0.004004,0.003626
0.003982,0.004004,0.003631
0.003977,0.004004,0.003636
0.003972,0.004004,0.003641
0.003967,0.004004,0.003646
0.003705,0.004004,0.003589
0.003700,0.004004,0.003594
0.003695,0.004004,0.003599
0.003690,0.004024,0.003604
0.003620,0.004024,0.003307
0.003615,0.004024,0.003312
0.003609,0.004024,0.003317
0.003604,0.004024,0.003323
0.003562,0.003358,0.003288
0.003557,0.003357,0.003293
0.003552,0.003357,0.003298
0.003547,0.003357,0.003303
0.003091,0.003599,0.002806
0.003086,0.003599,0.002811
0.003081,0.003599,0.002816
0.003076,0.003598,0.002821
0.003031,0.003598,0.002741
0.003026,0.003598,0.002747
0.003021,0.003598,0.002752
0.003016,0.003597,0.002757
0.003011,0.003597,0.002762
0.002752,0.003597,0.002692
0.002747,0.003275,0.002697
0.002741,0.003193,0.002702
0.002736,0.002452,0.002707
0.002674,0.002452,0.002384
0.002669,0.002453,0.002390
0.002664,0.002453,0.002395
0.002659,0.002453,0.002400
0.002619,0.002453,0.002322
0.002614,0.002538,0.002327
0.002609,0.002538,0.002332
0.002603,0.002538,0.002337
0.002151,0.002538,0.002038
0.002146,0.002538,0.002043
0.002141,0.002538,0.002048
0.002136,0.002538,0.002054
0.002130,0.002538,0.002059
0.002095,0.002539,0.002000
0.002090,0.002539,0.002006
0.002085,0.002057,0.002011
0.002080,0.002056,0.002016
0.001826,0.002056,0.001666
0.001820,0.002056,0.001671
0.001815,0.002056,0.001676
0.001810,0.002055,0.001681
0.001758,0.001946,0.001606
0.001753,0.001946,0.001611
0.001748,0.001946,0.001616
0.001743,0.001313,0.001621
0.001709,0.001313,0.001563
0.001703,0.001313,0.001568
0.001698,0.001313,0.001573
0.001693,0.001314,0.001579
0.001251,0.001314,0.001084
0.001246,0.001314,0.001089
0.001241,0.001372,0.001095
0.001235,0.001373,0.001100
0.001230,0.001373,0.001105
0.001225,0.001373,0.001076
0.001220,0.001373,0.001081
0.001215,0.001373,0.001086
0.001209,0.001373,0.001092
0.000959,0.001257,0.000830
0.000953,0.001257,0.000835
0.000948,0.001257,0.000840
0.000943,0.001257,0.000845
0.000882,0.000779,0.000782
0.000877,0.000779,0.000787
0.000872,0.000779,0.000793
0.000866,0.000779,0.000798
0.000567,0.000779,0.000754
0.000561,0.000779,0.000759
0.000556,0.000779,0.000764
0.000551,0.000664,0.000769
0.000545,0.000664,0.000775
0.000460,0.000664,0.000277
0.000455,0.000664,0.000283
0.000450,0.000664,0.000288
0.000445,0.000664,0.000293
0.000364,0.000258,0.000218
0.000359,0.000258,0.000223
0.000354,0.000258,0.000229
0.000348,0.000258,0.000234
0.000032,0.000258,0.000154
0.000027,-0.000294,0.000159
0.000022,-0.000294,0.000164
0.000017,-0.000294,0.000170
-0.000186,0.000059,-0.000191
-0.000191,0.000059,-0.000186
-0.000196,0.000059,-0.000180
-0.000202,0.000060,-0.000175
-0.000277,0.000060,-0.000276
-0.000283,0.000060,-0.000271
-0.000288,-0.000622,-0.000265
-0.000293,-0.000622,-0.000260
-0.000299,-0.000622,-0.000255
-0.000376,-0.000623,-0.000359
-0.000382,-0.000623,-0.000354
-0.000387,-0.000252,-0.000348
-0.000392,-0.000253,-0.000343
-0.000724,-0.000253,-0.000704
-0.000729,-0.000253,-0.000698
-0.000734,-0.001074,-0.000693
-0.000740,-0.001074,-0.000688
-0.000814,-0.001073,-0.000767
-0.000819,-0.001073,-0.000762
-0.000824,-0.001073,-0.000757
-0.000830,-0.000898,-0.000751
-0.000911,-0.000897,-0.000839
-0.000916,-0.000897,-0.000833
-0.000921,-0.000897,-0.000828
-0.000926,-0.000897,-0.000823
-0.001188,-0.000897,-0.001109
-0.001193,-0.000897,-0.001104
-0.001198,-0.000897,-0.001099
-0.001203,-0.000896,-0.001093
-0.001208,-0.000896,-0.001088
-0.001224,-0.001571,-0.001099
-0.001229,-0.001571,-0.001094
-0.001234,-0.001585,-0.001088
-0.001239,-0.001585,-0.001083
-0.001534,-0.001970,-0.001570
-0.001539,-0.001970,-0.001565
-0.001544,-0.001969,-0.001560
-0.001550,-0.001969,-0.001555
-0.001816,-0.001969,-0.001631
-0.001822,-0.001969,-0.001626
-0.001827,-0.001969,-0.001621
-0.001832,-0.001969,-0.001616
-0.001869,-0.001969,-0.001714
-0.001874,-0.001968,-0.001709
-0.001879,-0.001968,-0.001703
-0.001885,-0.001968,-0.001698
-0.001890,-0.002200,-0.001693
-0.001930,-0.002200,-0.001961
-0.001936,-0.002199,-0.001956
-0.001941,-0.002199,-0.001950
-0.001946,-0.002199,-0.001945
-0.002396,-0.002199,-0.002232
-0.002401,-0.002199,-0.002227
-0.002406,-0.002199,-0.002221
-0.002411,-0.002199,-0.002216
-0.002436,-0.002556,-0.002282
-0.002441,-0.002556,-0.002276
-0.002446,-0.002556,-0.002271
-0.002451,-0.002556,-0.002266
-0.002711,-0.003027,-0.002349
-0.002716,-0.003027,-0.002344
-0.002721,-0.003028,-0.002339
-0.002726,-0.002974,-0.002333
-0.002771,-0.002974,-0.002633
-0.002776,-0.002974,-0.002628
-0.002781,-0.002975,-0.002623
-0.002786,-0.002975,-0.002617
-0.002791,-0.002975,-0.002612
-0.002839,-0.002975,-0.002679
-0.002844,-0.002976,-0.002673
-0.002849,-0.002976,-0.002668
-0.002855,-0.002976,-0.002663
-0.003319,-0.002976,-0.003153
-0.003324,-0.002977,-0.003148
-0.003329,-0.002977,-0.003143
-0.003334,-0.003516,-0.003138
-0.003394,-0.003864,-0.003169
-0.003399,-0.003865,-0.003164
-0.003404,-0.003865,-0.003159
-0.003409,-0.003866,-0.003154
-0.003490,-0.004079,-0.003218
-0.003495,-0.004079,-0.003212
-0.003500,-0.004079,-0.003207
-0.003505,-0.004079,-0.003202
-0.003510,-0.004079,-0.003197
-0.003848,-0.004078,-0.003499
-0.003853,-0.004078,-0.003494
-0.003858,-0.004078,-0.003489
-0.003864,-0.004078,-0.003484
-0.003956,-0.004078,-0.003555
-0.003961,-0.004467,-0.003550
-0.003966,-0.004467,-0.003545
-0.003971,-0.004467,-0.003540
-0.004087,-0.004467,-0.004053
-0.004092,-0.004467,-0.004047
-0.004097,-0.004466,-0.004042
-0.004102,-0.004466,-0.004037
-0.004346,-0.004466,-0.004111
-0.004351,-0.004884,-0.004106
-0.004356,-0.004883,-0.004101
-0.004361,-0.004536,-0.004095
-0.004412,-0.004535,-0.004217
-0.004417,-0.005145,-0.004212
-0.004422,-0.005145,-0.004207
-0.004427,-0.005144,-0.004202
-0.004432,-0.005144,-0.004197
-0.004895,-0.005144,-0.004428
-0.004900,-0.005144,-0.004423
-0.004905,-0.005144,-0.004418
-0.004910,-0.005144,-0.004413
-0.004992,-0.005144,-0.004439
-0.004997,-0.005144,-0.004434
-0.005002,-0.005505,-0.004429
-0.005007,-0.005504,-0.004424
-0.005130,-0.005504,-0.004918
-0.005135,-0.005974,-0.004913
-0.005140,-0.005974,-0.004908
-0.005145,-0.005974,-0.004903
-0.005358,-0.005974,-0.004970
-0.005363,-0.005974,-0.004965
-0.005368,-0.005974,-0.004960
-0.005373,-0.005974,-0.004955
-0.005378,-0.005974,-0.004950
-0.005406,-0.005974,-0.005292
-0.005411,-0.005974,-0.005287
-0.005416,-0.005974,-0.005282
-0.005421,-0.005974,-0.005278
-0.005892,-0.005974,-0.005386
-0.005897,-0.005974,-0.005381
-0.005901,-0.005974,-0.005376
-0.005906,-0.007025,-0.005371
-0.005976,-0.007025,-0.005525
-0.005980,-0.007025,-0.005520
-0.005985,-0.007025,-0.005515
-0.005990,-0.007025,-0.005510
-0.006303,-0.007026,-0.005898
-0.006308,-0.007026,-0.005893
-0.006313,-0.006918,-0.005888
-0.006317,-0.006918,-0.005883
-0.006377,-0.006918,-0.005968
-0.006382,-0.006919,-0.005963
-0.006387,-0.006919,-0.005959
-0.006392,-0.006919,-0.005954
-0.006396,-0.006919,-0.005949
-0.006706,-0.006919,-0.006075
-0.006711,-0.006919,-0.006070
-0.006716,-0.007269,-0.006065
-0.006720,-0.007509,-0.006060
-0.006816,-0.007509,-0.006579
-0.006820,-0.007947,-0.006574
-0.006825,-0.007948,-0.006569
-0.006830,-0.007948,-0.006565
-0.006964,-0.007948,-0.006619
-0.006969,-0.007948,-0.006615
-0.006973,-0.007948,-0.006610
-0.006978,-0.007948,-0.006606
-0.007313,-0.007948,-0.006729
-0.007317,-0.007949,-0.006724
-0.007322,-0.008699,-0.006719
-0.007326,-0.008699,-0.006715
-0.007331,-0.008450,-0.006710
-0.007637,-0.008451,-0.007035
-0.007641,-0.008451,-0.007031
-0.007646,-0.008451,-0.007026
-0.007650,-0.008913,-0.007022
-0.007705,-0.008913,-0.007149
-0.007709,-0.008913,-0.007144
-0.007714,-0.008913,-0.007140
-0.007718,-0.008913,-0.007135
-0.007821,-0.008912,-0.007501
-0.007825,-0.008922,-0.007497
-0.007830,-0.008922,-0.007493
-0.007834,-0.008922,-0.007488
-0.008337,-0.008922,-0.007848
-0.008342,-0.009829,-0.007844
-0.008346,-0.009829,-0.007839
-0.008350,-0.009829,-0.007835
-0.008444,-0.009830,-0.007917
-0.008448,-0.009830,-0.007912
-0.008452,-0.009827,-0.007908
-0.008457,-0.009827,-0.007904
-0.008461,-0.009827,-0.007900
-0.008817,-0.009827,-0.008053
-0.008821,-0.009828,-0.008048
-0.008825,-0.009828,-0.008044
-0.008829,-0.009828,-0.008040
-0.008898,-0.009828,-0.008571
-0.008903,-0.009828,-0.008567
-0.008907,-0.010541,-0.008563
-0.008911,-0.010541,-0.008559
-0.009267,-0.010825,-0.008625
-0.009271,-0.010825,-0.008621
-0.009275,-0.010825,-0.008617
-0.009279,-0.010826,-0.008613
-0.009387,-0.010826,-0.008781
-0.009391,-0.010826,-0.008777
-0.009395,-0.010826,-0.008773
-0.009399,-0.010826,-0.008769
-0.009403,-0.011657,-0.008765
-0.009591,-0.011658,-0.009111
-0.009595,-0.011658,-0.009107
-0.009599,-0.011658,-0.009103
-0.009603,-0.011658,-0.009099
-0.009982,-0.011658,-0.009492
-0.009986,-0.011658,-0.009488
-0.009989,-0.011658,-0.009484
-0.009993,-0.011659,-0.009480
-0.010322,-0.012262,-0.009569
-0.010325,-0.012262,-0.009565
-0.010329,-0.012263,-0.009561
-0.010333,-0.012785,-0.009557
-0.010393,-0.012785,-0.009769
-0.010397,-0.012785,-0.009765
-0.010401,-0.012785,-0.009762
-0.010404,-0.012785,-0.009758
-0.010570,-0.012785,-0.010066
-0.010574,-0.012785,-0.010062
-0.010577,-0.013071,-0.010058
-0.010581,-0.013071,-0.010055
-0.010585,-0.013071,-0.010051
-0.011129,-0.013071,-0.010499
-0.011132,-0.013071,-0.010495
-0.011136,-0.013071,-0.010492
-0.011139,-0.013857,-0.010488
-0.011243,-0.013857,-0.010565
-0.011246,-0.013857,-0.010561
-0.011250,-0.013857,-0.010558
-0.011253,-0.013857,-0.010554
-0.011496,-0.014442,-0.011030
-0.011500,-0.014442,-0.011027
-0.011503,-0.014442,-0.011024
-0.011506,-0.014442,-0.011020
-0.011890,-0.014442,-0.011157
-0.011893,-0.014442,-0.011154
-0.011896,-0.014442,-0.011151
-0.011899,-0.014442,-0.011148
-0.011902,-0.015237,-0.011144
-0.011984,-0.015236,-0.011495
-0.011987,-0.015236,-0.011492
-0.011990,-0.015236,-0.011489
-0.011993,-0.015236,-0.011486
-0.012280,-0.015691,-0.011872
-0.012283,-0.015692,-0.011870
-0.012286,-0.015692,-0.011867
-0.012289,-0.015692,-0.011864
-0.012487,-0.015551,-0.011865
-0.012489,-0.015551,-0.011862
-0.012492,-0.015551,-0.011860
-0.012494,-0.015551,-0.011858
-0.012298,-0.015551,-0.011629
-0.012300,-0.015700,-0.011627
-0.012303,-0.015700,-0.011625
-0.012305,-0.015700,-0.011622
-0.012322,-0.015700,-0.011626
-0.012325,-0.015700,-0.011624
-0.012327,-0.014869,-0.011621
-0.012329,-0.014869,-0.011619
-0.012331,-0.014869,-0.011617
-0.012158,-0.014869,-0.011572
-0.012160,-0.015048,-0.011570
-0.012162,-0.015048,-0.011568
-0.012164,-0.015048,-0.011566
-0.012107,-0.015048,-0.011385
-0.012109,-0.015048,-0.011383
-0.012110,-0.015048,-0.011381
-0.012112,-0.015048,-0.011380
-0.011978,-0.015048,-0.011359
-0.011980,-0.015048,-0.011357
-0.011982,-0.014181,-0.011355
-0.011983,-0.014181,-0.011354
-0.011939,-0.014181,-0.011254
-0.011940,-0.014181,-0.011252
-0.011942,-0.014181,-0.011250
-0.011943,-0.014181,-0.011249
-0.011794,-0.014181,-0.011087
-0.011796,-0.014154,-0.011085
-0.011797,-0.014154,-0.011084
-0.011799,-0.013892,-0.011083
-0.011774,-0.013893,-0.011059
-0.011775,-0.013893,-0.011058
-0.011777,-0.013893,-0.011057
-0.011778,-0.013893,-0.011055
-0.011780,-0.013893,-0.011054
-0.011643,-0.013893,-0.011010
-0.011644,-0.013893,-0.011009
-0.011645,-0.013893,-0.011007
-0.011646,-0.013888,-0.011006
-0.011619,-0.013432,-0.010875
-0.011621,-0.013432,-0.010874
-0.011622,-0.013503,-0.010872
-0.011623,-0.013503,-0.010871
-0.011575,-0.013503,-0.010852
-0.011576,-0.013503,-0.010851
-0.011577,-0.013503,-0.010850
-0.011578,-0.013503,-0.010848
-0.011502,-0.013503,-0.010782
-0.011502,-0.013503,-0.010781
-0.011503,-0.013503,-0.010780
-0.011504,-0.013503,-0.010779
-0.011414,-0.013503,-0.010689
-0.011414,-0.013503,-0.010688
-0.011415,-0.013030,-0.010687
-0.011416,-0.013030,-0.010686
-0.011417,-0.013030,-0.010685
-0.011388,-0.013030,-0.010710
-0.011388,-0.013030,-0.010709
-0.011389,-0.013030,-0.010708
-0.011390,-0.013030,-0.010707
-0.011286,-0.013070,-0.010582
-0.011287,-0.013070,-0.010581
-0.011287,-0.013070,-0.010581
-0.011288,-0.013070,-0.010580
-0.011270,-0.013070,-0.010564
-0.011271,-0.013069,-0.010564
-0.011272,-0.013069,-0.010563
-0.011272,-0.012789,-0.010562
-0.011246,-0.012789,-0.010527
-0.011246,-0.012789,-0.010526
-0.011247,-0.012789,-0.010526
-0.011247,-0.012789,-0.010525
-0.011179,-0.012789,-0.010433
-0.011179,-0.012789,-0.010433
-0.011180,-0.012789,-0.010432
-0.011180,-0.012758,-0.010432
-0.011181,-0.012758,-0.010431
-0.011168,-0.012758,-0.010439
-0.011168,-0.012758,-0.010439
-0.011169,-0.012758,-0.010438
-0.011169,-0.012569,-0.010438
-0.011097,-0.012569,-0.010365
-0.011097,-0.012569,-0.010364
-0.011098,-0.012569,-0.010364
-0.011098,-0.012569,-0.010364
-0.011105,-0.012569,-0.010388
-0.011106,-0.012569,-0.010388
-0.011106,-0.012569,-0.010388
-0.011106,-0.012569,-0.010387
-0.011045,-0.012569,-0.010333
-0.011046,-0.012569,-0.010333
-0.011046,-0.012569,-0.010332
-0.011046,-0.012569,-0.010332
-0.011063,-0.012569,-0.010340
-0.011063,-0.012625,-0.010340
-0.011063,-0.012537,-0.010339
-0.011063,-0.012537,-0.010339
-0.011064,-0.012525,-0.010339
-0.011050,-0.012525,-0.010311
-0.011050,-0.012525,-0.010311
-0.011050,-0.012525,-0.010311
-0.011050,-0.012525,-0.010311
-0.011010,-0.012525,-0.010260
-0.011010,-0.012525,-0.010260
-0.011010,-0.012525,-0.010260
-0.011010,-0.012470,-0.010260
-0.011053,-0.012470,-0.010305
-0.011053,-0.012470,-0.010305
-0.011053,-0.012540,-0.010305
-0.011053,-0.012540,-0.010305
-0.010988,-0.012540,-0.010273
-0.010988,-0.012540,-0.010273
-0.010988,-0.012540,-0.010273
-0.010988,-0.012540,-0.010273
-0.011006,-0.012540,-0.010302
-0.011006,-0.012540,-0.010302
-0.011006,-0.012632,-0.010303
-0.011006,-0.012632,-0.010303
-0.011017,-0.012632,-0.010294
-0.011017,-0.012632,-0.010295
-0.011016,-0.012632,-0.010295
-0.011016,-0.012632,-0.010295
-0.011015,-0.012632,-0.010296
-0.010998,-0.012604,-0.010279
-0.010998,-0.012604,-0.010280
-0.010997,-0.012773,-0.010280
-0.010997,-0.012773,-0.010280
-0.011034,-0.012688,-0.010370
-0.011033,-0.012688,-0.010370
-0.011033,-0.012688,-0.010371
-0.011032,-0.012688,-0.010371
-0.011000,-0.012688,-0.010318
-0.011000,-0.012688,-0.010318
-0.010999,-0.012688,-0.010319
-0.010998,-0.012688,-0.010319
-0.011057,-0.012899,-0.010378
-0.011056,-0.012899,-0.010379
-0.011056,-0.012899,-0.010379
-0.011055,-0.012899,-0.010380
-0.011036,-0.012899,-0.010398
-0.011035,-0.013019,-0.010399
-0.011034,-0.013019,-0.010399
-0.011034,-0.013019,-0.010400
-0.011033,-0.013019,-0.010401
-0.011110,-0.013019,-0.010370
-0.011110,-0.013019,-0.010371
-0.011109,-0.013019,-0.010372
-0.011108,-0.013252,-0.010373
-0.011132,-0.013252,-0.010460
-0.011131,-0.013252,-0.010461
-0.011130,-0.013252,-0.010462
-0.011129,-0.013252,-0.010462
-0.011130,-0.013252,-0.010448
-0.011129,-0.013252,-0.010449
-0.011128,-0.013279,-0.010450
-0.011127,-0.013279,-0.010451
-0.011242,-0.013279,-0.010569
-0.011241,-0.013279,-0.010570
-0.011240,-0.013279,-0.010571
-0.011239,-0.013732,-0.010572
-0.011205,-0.013732,-0.010598
-0.011204,-0.013732,-0.010599
-0.011203,-0.013732,-0.010601
-0.011201,-0.013732,-0.010602
-0.011200,-0.013732,-0.010603
-0.011297,-0.013496,-0.010575
-0.011295,-0.013496,-0.010576
-0.011294,-0.014074,-0.010577
-0.011293,-0.014074,-0.010578
-0.011314,-0.014074,-0.010705
-0.011312,-0.014074,-0.010707
-0.011311,-0.014074,-0.010708
-0.011309,-0.013897,-0.010710
-0.011290,-0.013897,-0.010678
-0.011288,-0.013897,-0.010679
-0.011286,-0.013897,-0.010681
-0.011285,-0.013897,-0.010683
-0.011423,-0.013896,-0.010835
-0.011422,-0.014645,-0.010837
-0.011420,-0.014645,-0.010839
-0.011418,-0.014645,-0.010840
-0.011378,-0.014645,-0.010794
-0.011376,-0.014645,-0.010795
-0.011374,-0.014645,-0.010797
-0.011372,-0.014645,-0.010799
-0.011538,-0.014645,-0.010981
-0.011536,-0.014645,-0.010983
-0.011534,-0.014497,-0.010985
-0.011532,-0.014497,-0.010987
-0.011530,-0.014497,-0.010989
-0.011297,-0.014316,-0.010763
-0.011294,-0.014124,-0.010766
-0.011292,-0.014124,-0.010768
-0.011289,-0.014124,-0.010770
-0.010998,-0.014123,-0.010386
-0.010996,-0.014123,-0.010388
-0.010993,-0.014123,-0.010391
-0.010991,-0.014123,-0.010393
-0.010686,-0.014123,-0.010233
-0.010683,-0.014123,-0.010236
-0.010680,-0.013269,-0.010239
-0.010677,-0.013268,-0.010241
-0.010361,-0.013268,-0.009729
-0.010358,-0.013268,-0.009731
-0.010355,-0.013268,-0.009734
-0.010352,-0.013268,-0.009737
-0.010349,-0.013268,-0.009740
-0.010194,-0.012509,-0.009578
-0.010191,-0.012125,-0.009581
-0.010188,-0.012125,-0.009584
-0.010186,-0.012125,-0.009587
-0.009634,-0.012124,-0.009116
-0.009631,-0.012124,-0.009119
-0.009628,-0.012124,-0.009122
-0.009624,-0.011766,-0.009125
-0.009387,-0.011765,-0.009043
-0.009384,-0.011765,-0.009046
-0.009380,-0.010960,-0.009049
-0.009377,-0.010960,-0.009052
-0.009241,-0.010959,-0.008444
-0.009238,-0.010959,-0.008447
-0.009234,-0.010959,-0.008451
-0.009231,-0.010959,-0.008454
-0.008748,-0.010959,-0.008229
-0.008745,-0.010959,-0.008232
-0.008741,-0.010958,-0.008236
-0.008738,-0.010958,-0.008239
-0.008735,-0.010958,-0.008242
-0.008586,-0.010958,-0.008121
-0.008582,-0.010958,-0.008125
-0.008579,-0.010396,-0.008128
-0.008576,-0.009498,-0.008131
-0.008142,-0.009364,-0.007674
-0.008139,-0.009364,-0.007678
-0.008135,-0.009364,-0.007681
-0.008132,-0.009364,-0.007685
-0.007779,-0.009364,-0.007518
-0.007776,-0.009363,-0.007522
-0.007772,-0.009363,-0.007525
-0.007769,-0.009363,-0.007529
-0.007572,-0.009363,-0.006925
-0.007568,-0.009363,-0.006929
-0.007564,-0.008693,-0.006933
-0.007561,-0.008693,-0.006936
-0.007557,-0.008693,-0.006940
-0.007432,-0.008693,-0.006792
-0.007429,-0.008693,-0.006796
-0.007425,-0.008693,-0.006799
-0.007422,-0.008693,-0.006803
-0.006889,-0.008228,-0.006497
-0.006886,-0.008228,-0.006501
-0.006882,-0.008228,-0.006505
-0.006878,-0.008227,-0.006508
-0.006687,-0.008227,-0.006264
-0.006683,-0.008227,-0.006267
-0.006680,-0.007386,-0.006271
-0.006676,-0.007386,-0.006275
-0.006307,-0.007386,-0.006109
-0.006303,-0.007386,-0.006113
-0.006300,-0.007386,-0.006117
-0.006296,-0.007385,-0.006121
-0.006113,-0.007385,-0.005543
-0.006109,-0.007385,-0.005547
-0.006106,-0.007385,-0.005551
-0.006102,-0.007000,-0.005555
-0.006098,-0.007000,-0.005559
-0.005965,-0.006458,-0.005351
-0.005961,-0.006004,-0.005355
-0.005957,-0.006004,-0.005359
-0.005954,-0.006004,-0.005362
-0.005422,-0.006004,-0.005194
-0.005418,-0.006004,-0.005198
-0.005414,-0.006003,-0.005202
-0.005410,-0.006003,-0.005206
-0.005238,-0.006003,-0.004810
-0.005234,-0.006003,-0.004814
-0.005230,-0.006003,-0.004818
-0.005226,-0.006003,-0.004822
-0.005082,-0.005298,-0.004693
-0.005078,-0.005298,-0.004697
-0.005074,-0.005298,-0.004701
-0.005070,-0.005298,-0.004705
-0.005066,-0.005298,-0.004709
-0.004696,-0.005297,-0.004305
-0.004692,-0.005297,-0.004309
-0.004689,-0.005297,-0.004313
-0.004685,-0.005297,-0.004317
-0.004308,-0.005297,-0.004169
-0.004304,-0.005297,-0.004173
-0.004300,-0.005297,-0.004177
-0.004296,-0.005297,-0.004182
-0.004109,-0.005076,-0.003611
-0.004105,-0.005076,-0.003615
-0.004101,-0.004376,-0.003619
-0.004096,-0.004377,-0.003623
-0.003926,-0.003737,-0.003478
-0.003922,-0.003737,-0.003482
-0.003918,-0.003494,-0.003486
-0.003914,-0.003493,-0.003490
-0.003513,-0.003493,-0.003361
-0.003509,-0.003493,-0.003365
-0.003505,-0.003492,-0.003369
-0.003501,-0.003492,-0.003374
-0.003497,-0.003492,-0.003378
-0.003311,-0.003492,-0.002993
-0.003307,-0.003491,-0.002997
-0.003303,-0.003491,-0.003002
-0.003299,-0.003491,-0.003006
-0.003132,-0.003490,-0.002615
-0.003128,-0.003048,-0.002619
-0.003124,-0.003048,-0.002623
-0.003120,-0.003048,-0.002627
-0.002587,-0.003047,-0.002488
-0.002583,-0.002733,-0.002493
-0.002579,-0.002733,-0.002497
-0.002575,-0.002733,-0.002501
-0.002450,-0.002732,-0.002148
-0.002446,-0.002732,-0.002152
-0.002442,-0.002732,-0.002156
-0.002438,-0.001988,-0.002161
-0.002434,-0.001988,-0.002165
-0.002091,-0.001988,-0.001949
-0.002087,-0.001988,-0.001953
-0.002083,-0.001988,-0.001957
-0.002079,-0.001917,-0.001961
-0.001936,-0.001917,-0.001751
-0.001932,-0.001917,-0.001756
-0.001928,-0.001917,-0.001760
-0.001923,-0.001917,-0.001764
-0.001785,-0.001125,-0.001377
-0.001781,-0.001125,-0.001381
-0.001776,-0.001125,-0.001385
-0.001772,-0.001125,-0.001389
-0.001245,-0.001125,-0.001182
-0.001240,-0.001125,-0.001186
-0.001236,-0.001125,-0.001190
-0.001232,-0.000752,-0.001195
-0.001102,-0.000752,-0.000984
-0.001098,-0.000752,-0.000988
-0.001094,-0.000752,-0.000992
-0.001089,-0.000751,-0.000996
-0.001085,-0.000751,-0.001000
-0.000731,-0.000751,-0.000602
-0.000727,-0.000751,-0.000606
-0.000723,-0.000062,-0.000610
-0.000719,-0.000061,-0.000614
-0.000583,-0.000061,-0.000422
-0.000579,0.000344,-0.000426
-0.000575,0.000344,-0.000430
-0.000571,0.000344,-0.000434
-0.000424,0.000344,-0.000054
-0.000420,0.000344,-0.000058
-0.000416,0.000344,-0.000062
-0.000412,0.000344,-0.000066
0.000121,0.000344,0.000124
0.000125,0.000344,0.000120
0.000129,0.000344,0.000116
0.000133,0.000344,0.000112
0.000137,0.000344,0.000108
0.000265,0.001196,0.000438
0.000269,0.001196,0.000434
0.000273,0.001196,0.000430
0.000277,0.001196,0.000426
0.000644,0.001607,0.000570
0.000648,0.001607,0.000566
0.000652,0.001607,0.000562
0.000656,0.001607,0.000558
0.000820,0.001607,0.000927
0.000824,0.001608,0.000923
0.000828,0.001608,0.000919
0.000832,0.001608,0.000915
0.001037,0.002325,0.001080
0.001041,0.002326,0.001076
0.001045,0.002326,0.001072
0.001049,0.002326,0.001068
0.001382,0.002326,0.001621
0.001386,0.002326,0.001617
0.001390,0.002327,0.001614
0.001394,0.002739,0.001610
0.001398,0.002739,0.001606
0.001573,0.002739,0.001721
0.001576,0.002739,0.001717
0.001580,0.002739,0.001713
0.001584,0.003377,0.001710
0.002092,0.003378,0.001888
0.002095,0.003378,0.001884
0.002099,0.003378,0.001881
0.002103,0.003378,0.001877
0.002189,0.003378,0.002265
0.002193,0.003378,0.002261
0.002196,0.003702,0.002257
0.002200,0.003702,0.002254
0.002563,0.003702,0.002468
0.002567,0.004129,0.002464
0.002571,0.004129,0.002461
0.002574,0.004129,0.002457
0.002578,0.004130,0.002453
0.002689,0.004130,0.002803
0.002692,0.004634,0.002800
0.002696,0.004634,0.002796
0.002700,0.004634,0.002793
0.002879,0.004634,0.002945
0.002883,0.005365,0.002941
0.002887,0.005366,0.002938
0.002890,0.005366,0.002934
0.003438,0.005366,0.003480
0.003441,0.005366,0.003477
0.003445,0.005366,0.003474
0.003448,0.005366,0.003470
0.003562,0.005366,0.003597
0.003566,0.005514,0.003594
0.003569,0.005514,0.003590
0.003573,0.005514,0.003587
0.003958,0.005514,0.003835
0.003961,0.006560,0.003832
0.003964,0.006559,0.003828
0.003968,0.006559,0.003825
0.003971,0.006559,0.003822
0.004097,0.006559,0.004146
0.004100,0.006559,0.004143
0.004104,0.006559,0.004140
0.004107,0.006559,0.004137
0.004372,0.006559,0.004536
0.004375,0.006559,0.004533
0.004378,0.006559,0.004531
0.004382,0.007846,0.004528
0.004645,0.007846,0.004627
0.004648,0.007846,0.004624
0.004651,0.007846,0.004621
0.004654,0.007846,0.004618
0.004907,0.007846,0.004904
0.004910,0.007847,0.004902
0.004913,0.007847,0.004899
0.004916,0.007847,0.004896
0.004918,0.007847,0.004894
