============================================================================================
ANSOFT                                                                              01/23/15
Torque Rectangular Plot                                                             15:47:36

--------------------------------------------------------------------------------------------
         Time [ms]   -Output_Torque [NewtonMeter]
                                                 
 0.000000000000000            -28.162739767506199
 0.147783000000000            -28.164324642322001
 0.295566000000000            -28.202374814089602
 0.443349000000000            -28.261908484662399
 0.591132000000000            -28.334355045469799
 0.738915000000000            -28.402655467785600
 0.886698000000000            -28.461732703367900
 1.034481000000000            -28.490635545240202
 1.182264000000000            -28.495701962896199
 1.330047000000000            -28.482292086938003
 1.477830000000000            -28.455376517466000
 1.625613000000000            -28.423905407923598
 1.773396000000000            -28.384296620147001
 1.921179000000000            -28.330936725012901
 2.068962000000000            -28.278849653371100
 2.216745000000000            -28.219426873000202
 2.364528000000000            -28.186957206489300
 2.512311000000000            -28.160969454704897
 2.660094000000000            -28.179746194739700
 2.807877000000000            -28.229855600164800
 2.955660000000000            -28.307223070362802
 3.103443000000000            -28.383244029786599
 3.251226000000000            -28.463751056390400
 3.399009000000000            -28.496479253620699
 3.546792000000000            -28.513470062340197
 3.694575000000000            -28.500739833084499
 3.842358000000000            -28.471686857844801
 3.990141000000000            -28.429982488100499
 4.137924000000000            -28.389122667386097
 4.285707000000000            -28.341266378813501
 4.433490000000000            -28.294167027485798
 4.581273000000000            -28.250841411038000
 4.729056000000000            -28.206340796778900
 4.876839000000000            -28.173826477948300
 5.024622000000000            -28.165070915852098
 5.172405000000000            -28.188921487478300
 5.320188000000000            -28.243569443504597
 5.467971000000000            -28.314978409256398
 5.615754000000000            -28.381942850640300
 5.763537000000000            -28.449110261782899
 5.911320000000000            -28.495548284469898
 6.059103000000000            -28.510136352223000
 6.206886000000000            -28.503048401027701
 6.354669000000000            -28.473330687354398
 6.502452000000000            -28.434201197086100
 6.650235000000000            -28.396428195708502
 6.798018000000000            -28.345705817193199
 6.945800999999999            -28.284809341220200
 7.093584000000000            -28.241360661807200
 7.241367000000000            -28.191067628110702
 7.389150000000000            -28.163878966818899
 7.536933000000010            -28.161389327217901
 7.684716000000010            -28.201919871129100
 7.832498999999999            -28.252026588793399
 7.980282000000011            -28.332798011509702
 8.128065000000010            -28.402379777526399
 8.275848000000009            -28.459476833211198
 8.423631000000009            -28.489055092611800
 8.571414000000010            -28.495509665631101
 8.719197000000010            -28.478181294568500
 8.866980000000011            -28.456301612431098
 9.014763000000011            -28.421649466433898
 9.162546000000010            -28.382941138415500
 9.310329000000010            -28.329252794888198
 9.458112000000011            -28.275769605195300
 9.605895000000009            -28.219864808689099
 9.753678000000010            -28.181931018146102
 9.901461000000010            -28.159762189929502
10.049244000000000            -28.177973703583401
10.197026999999999            -28.229066526889902
10.344809999999999            -28.305949041113898
10.492592999999999            -28.385665772695297
10.640376000000000            -28.461003567126099
10.788159000000000            -28.497130995985000
10.935942000000001            -28.514276412901701
11.083724999999999            -28.500221365211601
11.231508000000000            -28.473297542653800
11.379291000000000            -28.429615885931600
11.527073999999999            -28.387718775051301
11.674856999999999            -28.341528183699701
11.822640000000000            -28.292511752025902
11.970422999999998            -28.251417138543502
12.118205999999999            -28.205558546827703
12.265988999999999            -28.172382711992700
12.413772000000000            -28.161235672025903
12.561555000000000            -28.187447867447702
12.709338000000001            -28.239880726186300
12.857120999999999            -28.311960989432698
13.004904000000000            -28.381515233773399
13.152687000000000            -28.450960544033002
13.300469999999999            -28.496076515544001
13.448252999999999            -28.518195192945701
13.596036000000000            -28.505524671808100
13.743818999999998            -28.477629223514697
13.891601999999999            -28.438130932319801
14.039384999999999            -28.399762319618198
14.187168000000000            -28.348900438428899
14.334951000000000            -28.302491353001798
14.482734000000001            -28.241479285120899
14.630516999999999            -28.196088789368098
14.778300000000000            -28.162820091606299
